<?xml version="1.0" encoding="utf-8"?>
<!-- Generator: Adobe Illustrator 23.0.1, SVG Export Plug-In . SVG Version: 6.00 Build 0)  -->
<svg version="1.1" id="Capa_1" xmlns="http://www.w3.org/2000/svg" xmlns:xlink="http://www.w3.org/1999/xlink" x="0px" y="0px"
	 viewBox="0 0 10.4 8.6" style="enable-background:new 0 0 10.4 8.6;" xml:space="preserve">
<style type="text/css">
	.st0{fill:url(#SVGID_1_);}
	.st1{fill:#4E4E4E;}
	.st2{fill:url(#SVGID_2_);}
</style>
<linearGradient id="SVGID_1_" gradientUnits="userSpaceOnUse" x1="0.9" y1="10.4135" x2="9.6605" y2="10.4135" gradientTransform="matrix(1 0 0 -1 0 14.6929)">
	<stop  offset="0" style="stop-color:#00C198"/>
	<stop  offset="1" style="stop-color:#00C198"/>
</linearGradient>
<path class="st0" d="M9.7,4.5c0-0.9-0.3-1.7-0.9-2.5C8.3,1.4,7.6,1,6.9,0.7c-0.6-0.2-1.4-0.2-2.1,0C4.6,0.9,4.5,0.9,4.4,0.9
	C4.3,1,4.1,1,4.1,1C3.8,1.1,3.5,1,3.2,0.9C3,0.8,3,0.7,2.7,0.6c-0.2,0-0.4,0.1-0.5,0.3C2.1,1.3,2.6,1.6,3,1.8
	c-0.1,0-0.2,0.1-0.3,0.1H2.3c-0.1,0-0.3,0-0.4-0.1c-0.1,0-0.3-0.1-0.3-0.1C1.3,1.6,1,1.8,0.9,2c0,0.1,0,0.3,0.1,0.4
	C1,2.5,1.2,2.5,1.3,2.6C1.7,2.7,2,2.8,2.4,2.8C1.8,4,1.9,5.6,2.8,6.7c0.4,0.5,0.9,0.9,1.6,1.1C4.7,7.9,5,8,5.3,8
	C5.5,8,5.7,8,5.9,7.9C6,7.8,6.1,7.6,6,7.5C5.9,7.4,5.8,7.3,5.7,7.3C5.5,7.3,5.3,7.3,5,7.2C4.8,7.1,4.5,7,4.3,6.9
	c-0.5-0.3-0.8-0.8-1-1.3C3,5,3,4.3,3.2,3.7C3.5,3,4.1,2.4,4.7,2.2C5.3,2,5.9,2,6.5,2.2C7.2,2.5,7.8,3.2,8,4C8,4.1,8,4.3,8,4.5
	C8.5,4.5,9.1,4.5,9.7,4.5z"/>
<circle class="st1" cx="5.9" cy="4.3" r="0.6"/>
<linearGradient id="SVGID_2_" gradientUnits="userSpaceOnUse" x1="7.7232" y1="9.0223" x2="9.6709" y2="9.0223" gradientTransform="matrix(1 0 0 -1 0 14.6929)">
	<stop  offset="0" style="stop-color:#FFAC32"/>
	<stop  offset="1" style="stop-color:#FFA532"/>
</linearGradient>
<path class="st2" d="M9.7,4.5C9.6,4.5,9.6,4.5,9.7,4.5H8C8,4.6,8,4.7,8,4.8c0,0.1-0.1,0.3-0.1,0.5C7.8,5.4,7.7,5.7,7.8,5.9
	c0.1,0.4,0.5,1,1.2,1C9.4,6.2,9.7,5.3,9.7,4.5z"/>
</svg>
